<?xml version="1.0" standalone="no"?>
<!DOCTYPE svg PUBLIC "-//W3C//DTD SVG 1.1//EN" "http://www.w3.org/Graphics/SVG/1.1/DTD/svg11.dtd">
<svg xmlns="http://www.w3.org/2000/svg">
<metadata>Copyright (C) 2015 by original authors @ fontello.com</metadata>
<defs>
<font id="local-icon" horiz-adv-x="1000" >
<font-face font-family="local-icon" font-weight="400" font-stretch="normal" units-per-em="1000" ascent="850" descent="-150" />
<missing-glyph horiz-adv-x="1000" />
<glyph glyph-name="instagram" unicode="&#xe800;" d="m690 350q0 26-6 50l176 0 0-344q0-56-39-96t-95-40l-592 0q-56 0-95 40t-39 96l0 344 174 0q-4-32-4-50 0-106 76-183t184-77q106 0 183 77t77 183z m36 430q56 0 95-39t39-95l0-146-218 0q-78 110-212 110-138 0-212-110l-218 0 0 146q0 56 39 95t95 39l592 0z m64-166l0 72q0 24-24 24l-72 0q-24 0-24-24l0-72q0-8 7-16t17-8l72 0q24 0 24 24z m-200-264q0-66-47-113t-113-47-113 47-47 113q0 68 47 114t113 46 113-46 47-114z" horiz-adv-x="860" />
<glyph glyph-name="sliders" unicode="&#xe801;" d="m196 64v-71h-196v71h196z m197 72q14 0 25-11t11-25v-143q0-14-11-25t-25-11h-143q-14 0-25 11t-11 25v143q0 15 11 25t25 11h143z m89 214v-71h-482v71h482z m-357 286v-72h-125v72h125z m732-572v-71h-411v71h411z m-536 643q15 0 26-10t10-26v-142q0-15-10-26t-26-10h-142q-15 0-26 10t-10 26v142q0 15 10 26t26 10h142z m358-286q14 0 25-10t10-25v-143q0-15-10-25t-25-11h-143q-15 0-25 11t-11 25v143q0 14 11 25t25 10h143z m178-71v-71h-125v71h125z m0 286v-72h-482v72h482z" horiz-adv-x="857.1" />
<glyph glyph-name="search" unicode="&#xe802;" d="m772 78q30-34 6-62l-46-46q-36-32-68 0l-190 190q-74-42-156-42-128 0-223 95t-95 223 90 219 218 91 224-95 96-223q0-88-46-162z m-678 358q0-88 68-156t156-68 151 63 63 153q0 88-68 155t-156 67-151-63-63-151z" horiz-adv-x="789" />
<glyph glyph-name="target" unicode="&#xe803;" d="m430 780q178 0 304-126t126-304-126-304-304-126-304 126-126 304 126 304 304 126z m36-778q124 14 212 102t100 212l-192 0 0 70 192 0q-12 124-100 212t-212 102l0-194-70 0 0 194q-124-14-213-102t-101-212l194 0 0-70-194 0q12-124 101-212t213-102l0 194 70 0 0-194z" horiz-adv-x="860" />
<glyph glyph-name="hoppy" unicode="&#xe804;" d="m684 257c0 0-37 6-65 0 0 0 44 143-25 286 0 0-20-8-42-28 0 0-8 157-44 184 0 0-24-9-51-39 0 0-20 136-115 190-95-54-115-190-115-190-27 30-50 39-50 39-37-27-45-184-45-184-22 20-42 28-42 28-69-143-25-286-25-286-28 6-65 0-65 0 0-155 139-282 315-294 0-1 0-1 0-1v-85c0-15 12-27 27-27s27 12 27 27v85c0 0 0 0 0 1 176 12 315 139 315 294" horiz-adv-x="667" />
<glyph glyph-name="boozy" unicode="&#xe805;" d="m495 749h17c11 0 20 10 20 21 0 11-9 20-20 20h-162c-6 34-35 60-71 60-35 0-65-26-70-60h-162c-12 0-21-9-21-20 0-11 9-21 21-21h11c-8-24-31-41-58-41v-6-732c37 0 67-30 67-67 0 0 54-53 207-53s217 53 217 53c0 37 30 67 68 67v732c-30 0-56 20-64 47m-216 60c13 0 24-8 29-19h-57c4 11 15 19 28 19" horiz-adv-x="556" />
<glyph glyph-name="complex-ds" unicode="&#xe806;" d="m0 600l188 125 187 125 188-125 187-125v-250-250l-187-125-188-125-187 125-188 125v250 250z" horiz-adv-x="750" />
<glyph glyph-name="export" unicode="&#xe807;" d="m750 60l0 56 100 82 0-188q0-20-15-35t-35-15l-750 0q-20 0-35 15t-15 35l0 550q0 22 14 36t36 14l288 0q-32-24-59-49t-39-39l-10-12-130 0 0-450 650 0z m-82 348q-166 0-242-41t-160-181q0 8 1 22t9 56 22 79 44 83 70 79 107 56 149 23l0 156 332-250-332-260 0 178z" horiz-adv-x="1000" />
<glyph glyph-name="menu" unicode="&#xe808;" d="m68 62q0-30 21-51t51-21h793q30 0 51 21t21 51-21 51-51 21h-793q-29 0-51-21t-21-51z m0 288q0-30 21-51t51-21h793q30 0 51 21t21 51-21 51-51 21h-793q-29 0-51-21t-21-51z m0 288q0-30 21-51t51-21h793q30 0 51 21t21 51-21 51-51 21h-793q-29 0-51-21t-21-51z" horiz-adv-x="1073.2" />
<glyph glyph-name="dot-3" unicode="&#xe809;" d="m110 460q46 0 78-32t32-78q0-44-32-77t-78-33-78 33-32 77q0 46 32 78t78 32z m350 0q46 0 78-32t32-78q0-44-33-77t-77-33-77 33-33 77q0 46 32 78t78 32z m350 0q46 0 78-32t32-78q0-44-32-77t-78-33-78 33-32 77q0 46 32 78t78 32z" horiz-adv-x="920" />
<glyph glyph-name="untappd" unicode="&#xe80a;" d="m570 719c17 3 31-4 43-13 8-7 16-14 22-24 1-2 2-5 3-8 0-1-1-2-1-3-1-1-3-2-4-2-7-3-10-7-9-14 1-2-1-5-3-6-6-2-8-7-11-12-6-12-12-24-17-35-5-9-9-18-14-27-2-5-4-8-6-12 0-1 0-4 1-5 14-14 27-29 41-44 7-7 13-15 21-22 5-4 12-8 18-11 8-5 16-9 24-13 6-4 12-8 19-11 10-4 19-11 26-21 7-10 14-19 21-29 7-9 13-19 20-30 5-7 10-13 15-20 6-8 11-17 17-25 9-11 17-22 25-34 4-6 8-12 12-17 6-8 11-16 17-24 7-10 14-20 21-30 7-10 14-19 21-29 7-9 13-18 19-27 8-11 15-21 22-32 6-8 12-16 18-25 6-10 6-20 4-31-3-12-8-22-15-32-8-13-17-25-28-35-9-8-19-15-29-22-6-5-14-9-21-12-10-4-19-7-29-10-14-4-30-4-45-2-11 2-19 8-25 17-9 14-19 27-29 41-11 15-21 30-32 46-5 6-10 13-14 19-8 11-16 22-24 33-7 10-14 19-21 29-9 13-18 26-28 39-6 9-12 18-19 26-9 14-19 27-29 41-8 12-16 24-25 36-3 4-6 10-10 14-4 4-5 10-6 15-2 6-2 13-3 20-1 7-3 14-4 21-1 7-2 13-3 20-1 10-3 21-10 30-1 2-3 4-4 7-4-7-8-13-10-20-2-7-3-14-4-22-2-7-3-15-4-23-1-7-2-15-3-22-2-11-4-23-12-32-10-14-18-28-28-42-8-12-17-24-25-35-6-9-12-18-18-27-7-10-15-20-22-31-8-11-16-23-24-35-6-8-11-16-17-24-7-10-14-20-21-30-6-8-11-16-17-24-7-9-13-18-20-27-8-12-16-23-24-35-5-6-9-13-15-18-4-4-11-6-16-8-5-1-11-2-17-2-10 1-20 3-30 5-12 2-24 8-36 14-8 5-17 10-26 16-14 9-26 21-37 34-9 12-16 25-20 40-3 7-3 15-3 22 1 6 4 12 8 17 7 10 14 21 21 31 7 10 15 20 22 30 7 11 15 22 22 33 11 16 22 31 33 47 11 16 22 32 33 47 9 13 17 26 27 38 8 13 17 25 26 37 10 14 19 28 29 42 5 7 11 14 15 22 4 6 10 9 16 12 10 6 21 11 31 16 11 7 23 13 34 20 3 1 5 4 7 7 13 14 26 29 39 43 4 5 10 10 15 15 1 1 1 4 1 5-3 7-7 13-10 20-6 10-11 21-17 32-4 7-8 14-11 22-1 2-2 4-3 6-3 3-6 7-9 9-3 2-4 4-4 7 0 1 0 2 0 3 1 4-2 6-5 7-10 2-10 4-6 13 8 16 21 25 37 33 7 4 15 7 24 7 4 0 5-2 6-6 1-4 0-9 4-12 2 0 4-1 6-1 2-1 4-3 5-5 0-6 4-10 8-14 13-15 27-30 41-44 1-1 2-3 3-3 1-1 3 0 4 1 5 5 10 10 15 16 7 7 14 13 20 21 5 5 11 11 16 17 1 2 1 5 2 8 0 3 3 4 5 4 6 1 7 3 7 9 0 4 0 7 0 9z" horiz-adv-x="1000" />
</font>
</defs>
</svg>