<?xml version="1.0" standalone="no"?>
<!DOCTYPE svg PUBLIC "-//W3C//DTD SVG 1.1//EN" "http://www.w3.org/Graphics/SVG/1.1/DTD/svg11.dtd">
<svg xmlns="http://www.w3.org/2000/svg">
<metadata>Copyright (C) 2014 by original authors @ fontello.com</metadata>
<defs>
<font id="smartcom" horiz-adv-x="1000" >
<font-face font-family="smartcom" font-weight="400" font-stretch="normal" units-per-em="1000" ascent="850" descent="-150" />
<missing-glyph horiz-adv-x="1000" />
<glyph glyph-name="dot-3" unicode="&#xe800;" d="m110 460q46 0 78-32t32-78q0-44-32-77t-78-33-78 33-32 77q0 46 32 78t78 32z m350 0q46 0 78-32t32-78q0-44-33-77t-77-33-77 33-33 77q0 46 32 78t78 32z m350 0q46 0 78-32t32-78q0-44-32-77t-78-33-78 33-32 77q0 46 32 78t78 32z" horiz-adv-x="920" />
<glyph glyph-name="menu" unicode="&#xe801;" d="m68 62q0-30 21-51t51-21h793q30 0 51 21t21 51-21 51-51 21h-793q-29 0-51-21t-21-51z m0 288q0-30 21-51t51-21h793q30 0 51 21t21 51-21 51-51 21h-793q-29 0-51-21t-21-51z m0 288q0-30 21-51t51-21h793q30 0 51 21t21 51-21 51-51 21h-793q-29 0-51-21t-21-51z" horiz-adv-x="1073.2" />
<glyph glyph-name="export" unicode="&#xe802;" d="m750 60l0 56 100 82 0-188q0-20-15-35t-35-15l-750 0q-20 0-35 15t-15 35l0 550q0 22 14 36t36 14l288 0q-32-24-59-49t-39-39l-10-12-130 0 0-450 650 0z m-82 348q-166 0-242-41t-160-181q0 8 1 22t9 56 22 79 44 83 70 79 107 56 149 23l0 156 332-250-332-260 0 178z" horiz-adv-x="1000" />
<glyph glyph-name="complex-ds" unicode="&#xe803;" d="m0 600l188 125 187 125 188-125 187-125v-250-250l-187-125-188-125-187 125-188 125v250 250z" horiz-adv-x="750" />
<glyph glyph-name="boozy" unicode="&#xe804;" d="m495 749h17c11 0 20 10 20 21 0 11-9 20-20 20h-162c-6 34-35 60-71 60-35 0-65-26-70-60h-162c-12 0-21-9-21-20 0-11 9-21 21-21h11c-8-24-31-41-58-41v-6-732c37 0 67-30 67-67 0 0 54-53 207-53s217 53 217 53c0 37 30 67 68 67v732c-30 0-56 20-64 47m-216 60c13 0 24-8 29-19h-57c4 11 15 19 28 19" horiz-adv-x="556" />
<glyph glyph-name="hoppy" unicode="&#xe805;" d="m684 257c0 0-37 6-65 0 0 0 44 143-25 286 0 0-20-8-42-28 0 0-8 157-44 184 0 0-24-9-51-39 0 0-20 136-115 190-95-54-115-190-115-190-27 30-50 39-50 39-37-27-45-184-45-184-22 20-42 28-42 28-69-143-25-286-25-286-28 6-65 0-65 0 0-155 139-282 315-294 0-1 0-1 0-1v-85c0-15 12-27 27-27s27 12 27 27v85c0 0 0 0 0 1 176 12 315 139 315 294" horiz-adv-x="667" />
</font>
</defs>
</svg>